<mxfile host="app.diagrams.net" modified="2024-04-10T04:37:28.385Z" agent="Mozilla/5.0 (Windows NT 10.0; Win64; x64) AppleWebKit/537.36 (KHTML, like Gecko) Chrome/123.0.0.0 Safari/537.36" etag="VlACdXjCrAwlj3H4iL27" version="24.2.3" type="gitlab">
  <diagram name="Página-1" id="CJp7jQUVUWqoKMK37pop">
    <mxGraphModel dx="1354" dy="760" grid="1" gridSize="10" guides="1" tooltips="1" connect="1" arrows="1" fold="1" page="1" pageScale="1" pageWidth="1169" pageHeight="827" math="0" shadow="0">
      <root>
        <mxCell id="0" />
        <mxCell id="1" parent="0" />
        <mxCell id="zQatnFMpl05O2aRM7ck--1" value="" style="rounded=1;whiteSpace=wrap;html=1;sketch=1;curveFitting=1;jiggle=2;fillColor=none;" vertex="1" parent="1">
          <mxGeometry x="20" y="120" width="1130" height="690" as="geometry" />
        </mxCell>
        <mxCell id="zQatnFMpl05O2aRM7ck--2" value="ESQUEMA DE LA LITERATURA" style="text;html=1;align=left;verticalAlign=middle;whiteSpace=wrap;rounded=0;fontFamily=Gochi Hand;fontSize=30;fontColor=#009999;fontSource=https%3A%2F%2Ffonts.googleapis.com%2Fcss%3Ffamily%3DGochi%2BHand;" vertex="1" parent="1">
          <mxGeometry x="60" y="60" width="390" height="30" as="geometry" />
        </mxCell>
        <mxCell id="zQatnFMpl05O2aRM7ck--4" value="&lt;font color=&quot;#333333&quot;&gt;Antecedentes&lt;/font&gt;" style="text;html=1;align=left;verticalAlign=middle;whiteSpace=wrap;rounded=0;fontFamily=Gochi Hand;fontSize=30;fontColor=#009999;fontSource=https%3A%2F%2Ffonts.googleapis.com%2Fcss%3Ffamily%3DGochi%2BHand;" vertex="1" parent="1">
          <mxGeometry x="70" y="170" width="240" height="30" as="geometry" />
        </mxCell>
        <mxCell id="zQatnFMpl05O2aRM7ck--5" value="&lt;div style=&quot;font-size: 16px;&quot;&gt;Investigaciones relacionadas al&amp;nbsp;&lt;span style=&quot;background-color: initial;&quot;&gt;desarrollo de modelos de DL que&amp;nbsp;&amp;nbsp;&lt;/span&gt;&lt;span style=&quot;background-color: initial;&quot;&gt;detectan escenas violentas entre&amp;nbsp;&lt;/span&gt;&lt;span style=&quot;background-color: initial;&quot;&gt;seres humanos captadas con cámaras&amp;nbsp;&lt;/span&gt;&lt;span style=&quot;background-color: initial;&quot;&gt;de video vigilancia.&lt;/span&gt;&lt;/div&gt;" style="text;html=1;align=left;verticalAlign=middle;whiteSpace=wrap;rounded=0;fontFamily=Gochi Hand;fontSource=https%3A%2F%2Ffonts.googleapis.com%2Fcss%3Ffamily%3DGochi%2BHand;fontSize=16;fontColor=#4D4D4D;" vertex="1" parent="1">
          <mxGeometry x="70" y="200" width="800" height="40" as="geometry" />
        </mxCell>
        <mxCell id="zQatnFMpl05O2aRM7ck--21" value="" style="group;verticalAlign=middle;" vertex="1" connectable="0" parent="1">
          <mxGeometry x="40" y="270" width="350" height="490" as="geometry" />
        </mxCell>
        <mxCell id="zQatnFMpl05O2aRM7ck--22" value="&lt;div style=&quot;&quot;&gt;&lt;div style=&quot;&quot;&gt;Exploración de los enfoques de las&amp;nbsp;&lt;/div&gt;&lt;div style=&quot;&quot;&gt;investigaciones de tópicos&lt;/div&gt;&lt;div style=&quot;&quot;&gt;relacionados al tema de tesis&lt;/div&gt;&lt;/div&gt;" style="rounded=1;whiteSpace=wrap;html=1;align=center;verticalAlign=top;fontFamily=Gochi Hand;fontSource=https%3A%2F%2Ffonts.googleapis.com%2Fcss%3Ffamily%3DGochi%2BHand;fontSize=18;fillColor=none;sketch=1;curveFitting=1;jiggle=2;" vertex="1" parent="zQatnFMpl05O2aRM7ck--21">
          <mxGeometry width="350" height="450" as="geometry" />
        </mxCell>
        <mxCell id="zQatnFMpl05O2aRM7ck--23" value="&lt;div style=&quot;font-size: 18px;&quot;&gt;&lt;div&gt;Detección de&amp;nbsp;&lt;span style=&quot;background-color: initial;&quot;&gt;anomalías en videos de vigilancia&lt;/span&gt;&lt;/div&gt;&lt;/div&gt;" style="rounded=1;whiteSpace=wrap;html=1;align=center;verticalAlign=middle;fontFamily=Gochi Hand;fontSource=https%3A%2F%2Ffonts.googleapis.com%2Fcss%3Ffamily%3DGochi%2BHand;fontSize=18;fillColor=none;sketch=1;curveFitting=1;jiggle=2;" vertex="1" parent="zQatnFMpl05O2aRM7ck--21">
          <mxGeometry x="30" y="90" width="290" height="70" as="geometry" />
        </mxCell>
        <mxCell id="zQatnFMpl05O2aRM7ck--24" value="&lt;div style=&quot;font-size: 18px;&quot;&gt;&lt;div&gt;&lt;span style=&quot;background-color: initial;&quot;&gt;Clasificación de acciones humanas en videos con baja resolución&lt;/span&gt;&lt;/div&gt;&lt;/div&gt;" style="rounded=1;whiteSpace=wrap;html=1;align=center;verticalAlign=middle;fontFamily=Gochi Hand;fontSource=https%3A%2F%2Ffonts.googleapis.com%2Fcss%3Ffamily%3DGochi%2BHand;fontSize=18;fillColor=none;sketch=1;curveFitting=1;jiggle=2;" vertex="1" parent="zQatnFMpl05O2aRM7ck--21">
          <mxGeometry x="30" y="205" width="290" height="80" as="geometry" />
        </mxCell>
        <mxCell id="zQatnFMpl05O2aRM7ck--25" value="&lt;div style=&quot;font-size: 18px;&quot;&gt;Identificación de&amp;nbsp;&lt;span style=&quot;background-color: initial;&quot;&gt;escenas violentas&lt;/span&gt;&lt;br&gt;&lt;/div&gt;" style="rounded=1;whiteSpace=wrap;html=1;align=center;verticalAlign=middle;fontFamily=Gochi Hand;fontSource=https%3A%2F%2Ffonts.googleapis.com%2Fcss%3Ffamily%3DGochi%2BHand;fontSize=18;fillColor=none;sketch=1;curveFitting=1;jiggle=2;" vertex="1" parent="zQatnFMpl05O2aRM7ck--21">
          <mxGeometry x="30" y="330" width="290" height="80" as="geometry" />
        </mxCell>
        <mxCell id="zQatnFMpl05O2aRM7ck--35" style="rounded=0;orthogonalLoop=1;jettySize=auto;html=1;entryX=0;entryY=0.5;entryDx=0;entryDy=0;fontFamily=Gochi Hand;fontSource=https%3A%2F%2Ffonts.googleapis.com%2Fcss%3Ffamily%3DGochi%2BHand;fontSize=12;fontColor=#4D4D4D;exitX=1;exitY=0.5;exitDx=0;exitDy=0;sketch=1;curveFitting=1;jiggle=2;" edge="1" parent="1" source="zQatnFMpl05O2aRM7ck--22" target="zQatnFMpl05O2aRM7ck--31">
          <mxGeometry relative="1" as="geometry" />
        </mxCell>
        <mxCell id="zQatnFMpl05O2aRM7ck--36" value="" style="group" vertex="1" connectable="0" parent="1">
          <mxGeometry x="430" y="270" width="350" height="450" as="geometry" />
        </mxCell>
        <mxCell id="zQatnFMpl05O2aRM7ck--31" value="&lt;div style=&quot;&quot;&gt;&lt;div style=&quot;&quot;&gt;Análisis del avance progresivo de&lt;/div&gt;&lt;div style=&quot;&quot;&gt;las arquitecturas de los modelos de cada&lt;/div&gt;&lt;div style=&quot;&quot;&gt;tema&lt;/div&gt;&lt;/div&gt;" style="rounded=1;whiteSpace=wrap;html=1;align=center;verticalAlign=top;fontFamily=Gochi Hand;fontSource=https%3A%2F%2Ffonts.googleapis.com%2Fcss%3Ffamily%3DGochi%2BHand;fontSize=18;fillColor=none;sketch=1;curveFitting=1;jiggle=2;" vertex="1" parent="zQatnFMpl05O2aRM7ck--36">
          <mxGeometry width="350" height="450" as="geometry" />
        </mxCell>
        <mxCell id="zQatnFMpl05O2aRM7ck--32" value="&lt;div style=&quot;font-size: 18px;&quot;&gt;&lt;div&gt;Detección de&amp;nbsp;&lt;span style=&quot;background-color: initial;&quot;&gt;anomalías en videos de vigilancia&lt;/span&gt;&lt;/div&gt;&lt;/div&gt;" style="rounded=1;whiteSpace=wrap;html=1;align=center;verticalAlign=middle;fontFamily=Gochi Hand;fontSource=https%3A%2F%2Ffonts.googleapis.com%2Fcss%3Ffamily%3DGochi%2BHand;fontSize=18;fillColor=none;sketch=1;curveFitting=1;jiggle=2;" vertex="1" parent="zQatnFMpl05O2aRM7ck--36">
          <mxGeometry x="30" y="90" width="290" height="70" as="geometry" />
        </mxCell>
        <mxCell id="zQatnFMpl05O2aRM7ck--33" value="&lt;div style=&quot;font-size: 18px;&quot;&gt;&lt;div&gt;&lt;span style=&quot;background-color: initial;&quot;&gt;Clasificación de acciones humanas en videos con baja resolución&lt;/span&gt;&lt;/div&gt;&lt;/div&gt;" style="rounded=1;whiteSpace=wrap;html=1;align=center;verticalAlign=middle;fontFamily=Gochi Hand;fontSource=https%3A%2F%2Ffonts.googleapis.com%2Fcss%3Ffamily%3DGochi%2BHand;fontSize=18;fillColor=none;sketch=1;curveFitting=1;jiggle=2;" vertex="1" parent="zQatnFMpl05O2aRM7ck--36">
          <mxGeometry x="30" y="205" width="290" height="80" as="geometry" />
        </mxCell>
        <mxCell id="zQatnFMpl05O2aRM7ck--34" value="&lt;div style=&quot;font-size: 18px;&quot;&gt;Identificación de&amp;nbsp;&lt;span style=&quot;background-color: initial;&quot;&gt;escenas violentas&lt;/span&gt;&lt;br&gt;&lt;/div&gt;" style="rounded=1;whiteSpace=wrap;html=1;align=center;verticalAlign=middle;fontFamily=Gochi Hand;fontSource=https%3A%2F%2Ffonts.googleapis.com%2Fcss%3Ffamily%3DGochi%2BHand;fontSize=18;fillColor=none;sketch=1;curveFitting=1;jiggle=2;" vertex="1" parent="zQatnFMpl05O2aRM7ck--36">
          <mxGeometry x="30" y="330" width="290" height="80" as="geometry" />
        </mxCell>
      </root>
    </mxGraphModel>
  </diagram>
</mxfile>
